
Algorithm Time Analysis for Linear Tetranacci Algorithm
-----------------------------------------------------------
Integer         Tetranacci Value               Elapsed Time (seconds)
0               0                                          0.000000
5               2                                          0.000000
10              56                                         0.000000
15              1490                                       0.000000
20              39648                                      0.000000
25              1055026                                    0.000000
30              28074040                                   0.000000
35              747044834                                  0.000000
40              19878720128                                0.000000
45              528968939938                               0.000000
50              14075762303480                             0.000000
55              374553342295090                            0.000000
60              9966792788887776                           0.000000
65              265214449530564448                         0.000000
70              7057305768232952800                        0.000000
75              187793556476621420000                      0.000000
80              4997150614173858000000                     0.000000
85              132973221921205170000000                   0.000000
90              3538391998422745000000000                  0.000000
95              94155934206972160000000000                 0.000000
100             2505471397838181500000000000               0.000000
